ControlUnit/simulation/qsim/ControlUnit.msim.vcd
$comment
	File created using the following command:
		vcd file ControlUnit.msim.vcd -direction
$end
$date
	Wed May 15 04:42:55 2019
$end
$version
	ModelSim Version 10.1d
$end
$timescale
	1ps
$end
$scope module ControlUnit_vlg_vec_tst $end
$var reg 1 ! CLK $end
$var reg 11 " IR [10:0] $end
$var reg 1 # V $end
$var wire 1 $ ALU_SEL [3] $end
$var wire 1 % ALU_SEL [2] $end
$var wire 1 & ALU_SEL [1] $end
$var wire 1 ' ALU_SEL [0] $end
$var wire 1 ( BUS_SEL10 $end
$var wire 1 ) BUS_SEL11 $end
$var wire 1 * BUS_SEL12 $end
$var wire 1 + BUS_SEL13 $end
$var wire 1 , LOADSEL [3] $end
$var wire 1 - LOADSEL [2] $end
$var wire 1 . LOADSEL [1] $end
$var wire 1 / LOADSEL [0] $end
$var wire 1 0 sampler $end
$scope module i1 $end
$var wire 1 1 gnd $end
$var wire 1 2 vcc $end
$var wire 1 3 unknown $end
$var tri1 1 4 devclrn $end
$var tri1 1 5 devpor $end
$var tri1 1 6 devoe $end
$var wire 1 7 IR[3]~input_o $end
$var wire 1 8 IR[2]~input_o $end
$var wire 1 9 IR[1]~input_o $end
$var wire 1 : IR[0]~input_o $end
$var wire 1 ; ALU_SEL[3]~output_o $end
$var wire 1 < ALU_SEL[2]~output_o $end
$var wire 1 = ALU_SEL[1]~output_o $end
$var wire 1 > ALU_SEL[0]~output_o $end
$var wire 1 ? BUS_SEL13~output_o $end
$var wire 1 @ BUS_SEL12~output_o $end
$var wire 1 A BUS_SEL11~output_o $end
$var wire 1 B BUS_SEL10~output_o $end
$var wire 1 C LOADSEL[3]~output_o $end
$var wire 1 D LOADSEL[2]~output_o $end
$var wire 1 E LOADSEL[1]~output_o $end
$var wire 1 F LOADSEL[0]~output_o $end
$var wire 1 G CLK~input_o $end
$var wire 1 H CLK~inputclkctrl_outclk $end
$var wire 1 I IR[7]~input_o $end
$var wire 1 J IR[8]~input_o $end
$var wire 1 K IR[6]~input_o $end
$var wire 1 L IR[9]~input_o $end
$var wire 1 M inst|LPM_DECODE_component|auto_generated|w_anode51w[3]~0_combout $end
$var wire 1 N inst1212|LPM_COUNTER_component|auto_generated|counter_comb_bita0~combout $end
$var wire 1 O ~GND~combout $end
$var wire 1 P inst3|LPM_DECODE_component|auto_generated|w_anode19w[2]~0_combout $end
$var wire 1 Q inst|LPM_DECODE_component|auto_generated|w_anode132w[3]~0_combout $end
$var wire 1 R inst101~0_combout $end
$var wire 1 S inst|LPM_DECODE_component|auto_generated|w_anode152w[3]~0_combout $end
$var wire 1 T inst|LPM_DECODE_component|auto_generated|w_anode162w[3]~0_combout $end
$var wire 1 U inst|LPM_DECODE_component|auto_generated|w_anode61w[3]~0_combout $end
$var wire 1 V inst98~0_combout $end
$var wire 1 W inst|LPM_DECODE_component|auto_generated|w_anode31w[3]~0_combout $end
$var wire 1 X inst|LPM_DECODE_component|auto_generated|w_anode41w[3]~0_combout $end
$var wire 1 Y inst|LPM_DECODE_component|auto_generated|w_anode102w[3]~0_combout $end
$var wire 1 Z inst|LPM_DECODE_component|auto_generated|w_anode122w[3]~0_combout $end
$var wire 1 [ inst|LPM_DECODE_component|auto_generated|w_anode112w[3]~0_combout $end
$var wire 1 \ inst|LPM_DECODE_component|auto_generated|w_anode142w[3]~0_combout $end
$var wire 1 ] inst98~1_combout $end
$var wire 1 ^ inst|LPM_DECODE_component|auto_generated|w_anode21w[3]~0_combout $end
$var wire 1 _ inst|LPM_DECODE_component|auto_generated|w_anode71w[3]~0_combout $end
$var wire 1 ` inst|LPM_DECODE_component|auto_generated|w_anode91w[3]~0_combout $end
$var wire 1 a inst98~2_combout $end
$var wire 1 b inst98~3_combout $end
$var wire 1 c inst98~4_combout $end
$var wire 1 d inst1212|LPM_COUNTER_component|auto_generated|counter_comb_bita0~COUT $end
$var wire 1 e inst1212|LPM_COUNTER_component|auto_generated|counter_comb_bita1~combout $end
$var wire 1 f inst1212|LPM_COUNTER_component|auto_generated|counter_comb_bita1~COUT $end
$var wire 1 g inst1212|LPM_COUNTER_component|auto_generated|counter_comb_bita2~combout $end
$var wire 1 h inst3|LPM_DECODE_component|auto_generated|w_anode19w[2]~1_combout $end
$var wire 1 i inst13|9~combout $end
$var wire 1 j inst13|8~0_combout $end
$var wire 1 k inst13|8~1_combout $end
$var wire 1 l inst13|7~0_combout $end
$var wire 1 m inst13|7~1_combout $end
$var wire 1 n IR[10]~input_o $end
$var wire 1 o inst118|68~combout $end
$var wire 1 p inst100~0_combout $end
$var wire 1 q IR[4]~input_o $end
$var wire 1 r IR[5]~input_o $end
$var wire 1 s inst40~0_combout $end
$var wire 1 t inst105~0_combout $end
$var wire 1 u V~input_o $end
$var wire 1 v inst93~0_combout $end
$var wire 1 w inst118|7~0_combout $end
$var wire 1 x inst118|9~0_combout $end
$var wire 1 y inst109~0_combout $end
$var wire 1 z inst118|8~0_combout $end
$var wire 1 { inst110~0_combout $end
$var wire 1 | inst118|8~1_combout $end
$var wire 1 } inst118|8~2_combout $end
$var wire 1 ~ inst118|7~3_combout $end
$var wire 1 !! inst118|7~4_combout $end
$var wire 1 "! inst118|7~1_combout $end
$var wire 1 #! inst118|7~2_combout $end
$var wire 1 $! inst118|7~5_combout $end
$var wire 1 %! inst24|68~combout $end
$var wire 1 &! inst24|9~0_combout $end
$var wire 1 '! inst24|9~1_combout $end
$var wire 1 (! inst24|8~0_combout $end
$var wire 1 )! inst24|8~1_combout $end
$var wire 1 *! inst24|7~0_combout $end
$var wire 1 +! inst|LPM_DECODE_component|auto_generated|w_anode4w [3] $end
$var wire 1 ,! inst|LPM_DECODE_component|auto_generated|w_anode4w [2] $end
$var wire 1 -! inst|LPM_DECODE_component|auto_generated|w_anode4w [1] $end
$var wire 1 .! inst|LPM_DECODE_component|auto_generated|w_anode4w [0] $end
$var wire 1 /! inst|LPM_DECODE_component|auto_generated|dffe1a [15] $end
$var wire 1 0! inst|LPM_DECODE_component|auto_generated|dffe1a [14] $end
$var wire 1 1! inst|LPM_DECODE_component|auto_generated|dffe1a [13] $end
$var wire 1 2! inst|LPM_DECODE_component|auto_generated|dffe1a [12] $end
$var wire 1 3! inst|LPM_DECODE_component|auto_generated|dffe1a [11] $end
$var wire 1 4! inst|LPM_DECODE_component|auto_generated|dffe1a [10] $end
$var wire 1 5! inst|LPM_DECODE_component|auto_generated|dffe1a [9] $end
$var wire 1 6! inst|LPM_DECODE_component|auto_generated|dffe1a [8] $end
$var wire 1 7! inst|LPM_DECODE_component|auto_generated|dffe1a [7] $end
$var wire 1 8! inst|LPM_DECODE_component|auto_generated|dffe1a [6] $end
$var wire 1 9! inst|LPM_DECODE_component|auto_generated|dffe1a [5] $end
$var wire 1 :! inst|LPM_DECODE_component|auto_generated|dffe1a [4] $end
$var wire 1 ;! inst|LPM_DECODE_component|auto_generated|dffe1a [3] $end
$var wire 1 <! inst|LPM_DECODE_component|auto_generated|dffe1a [2] $end
$var wire 1 =! inst|LPM_DECODE_component|auto_generated|dffe1a [1] $end
$var wire 1 >! inst|LPM_DECODE_component|auto_generated|dffe1a [0] $end
$var wire 1 ?! inst1212|LPM_COUNTER_component|auto_generated|counter_reg_bit [2] $end
$var wire 1 @! inst1212|LPM_COUNTER_component|auto_generated|counter_reg_bit [1] $end
$var wire 1 A! inst1212|LPM_COUNTER_component|auto_generated|counter_reg_bit [0] $end
$upscope $end
$upscope $end
$enddefinitions $end
#0
$dumpvars
0!
b1011110101 "
0#
0'
0&
0%
0$
0(
0)
0*
0+
0/
0.
0-
1,
x0
01
12
x3
14
15
16
07
18
09
1:
0;
0<
0=
0>
0?
0@
0A
0B
1C
0D
0E
0F
0G
0H
1I
0J
1K
1L
0M
1N
0O
0P
0Q
0R
0S
0T
0U
0V
0W
0X
0Y
1Z
0[
0\
0]
0^
0_
0`
0a
0b
0c
0d
0e
1f
0g
0h
0i
0j
0k
0l
0m
0n
0o
0p
1q
1r
0s
0t
0u
0v
1w
0x
0y
0z
0{
0|
0}
0~
0!!
0"!
0#!
0$!
1%!
0&!
0'!
0(!
0)!
0*!
z.!
z-!
z,!
0+!
0>!
0=!
0<!
0;!
0:!
09!
08!
z7!
06!
05!
04!
03!
02!
01!
00!
0/!
0A!
0@!
0?!
$end
#20000
1!
1G
1H
00
1A!
1d
0N
0%!
1e
1(!
0C
0,
1'!
1D
1-
1)!
1E
1.
#40000
0!
0G
0H
10
#60000
1!
1G
1H
00
1@!
0A!
1h
0f
0e
0d
1N
1g
1f
1e
0g
#80000
0!
0G
0H
10
#100000
1!
1G
1H
00
1A!
13!
0h
1P
1d
0N
1]
1"!
0f
0e
1b
1o
1#!
1g
1c
1?
1+
1$!
1B
1(
#120000
0!
0G
0H
10
#140000
1!
1G
1H
00
0@!
0A!
1f
1e
0P
0d
1N
1%!
0g
0"!
0c
0e
0(!
1C
1,
0o
0'!
0#!
0?
0D
0+
0-
0)!
0E
0.
0$!
0B
0(
#160000
0!
0G
0H
10
#180000
1!
1G
1H
00
1A!
1d
0N
0%!
1e
1(!
0C
0,
1'!
1D
1-
1)!
1E
1.
#200000
0!
0G
0H
10
#220000
1!
1G
1H
00
1@!
0A!
1h
0f
0e
0d
1N
1g
1f
1e
0g
#240000
0!
0G
0H
10
#260000
1!
1G
1H
00
1A!
0h
1P
1d
0N
1"!
1c
0f
0e
1o
1#!
1g
1?
1+
1$!
1B
1(
#280000
0!
0G
0H
10
#300000
1!
1G
1H
00
0@!
0A!
1f
1e
0P
0d
1N
1%!
0g
0"!
0c
0e
0(!
1C
1,
0o
0'!
0#!
0?
0D
0+
0-
0)!
0E
0.
0$!
0B
0(
#320000
0!
0G
0H
10
#340000
1!
1G
1H
00
1A!
1d
0N
0%!
1e
1(!
0C
0,
1'!
1D
1-
1)!
1E
1.
#360000
0!
0G
0H
10
#380000
1!
1G
1H
00
1@!
0A!
1h
0f
0e
0d
1N
1g
1f
1e
0g
#400000
0!
0G
0H
10
#420000
1!
1G
1H
00
1A!
0h
1P
1d
0N
1"!
1c
0f
0e
1o
1#!
1g
1?
1+
1$!
1B
1(
#440000
0!
0G
0H
10
#460000
1!
1G
1H
00
0@!
0A!
1f
1e
0P
0d
1N
1%!
0g
0"!
0c
0e
0(!
1C
1,
0o
0'!
0#!
0?
0D
0+
0-
0)!
0E
0.
0$!
0B
0(
#480000
0!
0G
0H
10
#500000
1!
1G
1H
00
1A!
1d
0N
0%!
1e
1(!
0C
0,
1'!
1D
1-
1)!
1E
1.
#520000
0!
0G
0H
10
#540000
1!
1G
1H
00
1@!
0A!
1h
0f
0e
0d
1N
1g
1f
1e
0g
#560000
0!
0G
0H
10
#580000
1!
1G
1H
00
1A!
0h
1P
1d
0N
1"!
1c
0f
0e
1o
1#!
1g
1?
1+
1$!
1B
1(
#600000
0!
0G
0H
10
#620000
1!
1G
1H
00
0@!
0A!
1f
1e
0P
0d
1N
1%!
0g
0"!
0c
0e
0(!
1C
1,
0o
0'!
0#!
0?
0D
0+
0-
0)!
0E
0.
0$!
0B
0(
#640000
0!
0G
0H
10
#660000
1!
1G
1H
00
1A!
1d
0N
0%!
1e
1(!
0C
0,
1'!
1D
1-
1)!
1E
1.
#680000
0!
0G
0H
10
#700000
1!
1G
1H
00
1@!
0A!
1h
0f
0e
0d
1N
1g
1f
1e
0g
#720000
0!
0G
0H
10
#740000
1!
1G
1H
00
1A!
0h
1P
1d
0N
1"!
1c
0f
0e
1o
1#!
1g
1?
1+
1$!
1B
1(
#760000
0!
0G
0H
10
#780000
1!
1G
1H
00
0@!
0A!
1f
1e
0P
0d
1N
1%!
0g
0"!
0c
0e
0(!
1C
1,
0o
0'!
0#!
0?
0D
0+
0-
0)!
0E
0.
0$!
0B
0(
#800000
0!
0G
0H
10
#820000
1!
1G
1H
00
1A!
1d
0N
0%!
1e
1(!
0C
0,
1'!
1D
1-
1)!
1E
1.
#840000
0!
0G
0H
10
#860000
1!
1G
1H
00
1@!
0A!
1h
0f
0e
0d
1N
1g
1f
1e
0g
#880000
0!
0G
0H
10
#900000
1!
1G
1H
00
1A!
0h
1P
1d
0N
1"!
1c
0f
0e
1o
1#!
1g
1?
1+
1$!
1B
1(
#920000
0!
0G
0H
10
#940000
1!
1G
1H
00
0@!
0A!
1f
1e
0P
0d
1N
1%!
0g
0"!
0c
0e
0(!
1C
1,
0o
0'!
0#!
0?
0D
0+
0-
0)!
0E
0.
0$!
0B
0(
#960000
0!
0G
0H
10
#980000
1!
1G
1H
00
1A!
1d
0N
0%!
1e
1(!
0C
0,
1'!
1D
1-
1)!
1E
1.
