ALU/simulation/qsim/ALU.msim.vcd
$comment
	File created using the following command:
		vcd file ALU.msim.vcd -direction
$end
$date
	Wed Apr 24 23:27:32 2019
$end
$version
	ModelSim Version 10.1d
$end
$timescale
	1ps
$end
$scope module ALU_vlg_vec_tst $end
$var reg 4 ! ALUSEL [3:0] $end
$var reg 1 " CLK $end
$var reg 4 # RX0 [3:0] $end
$var reg 4 $ RX1 [3:0] $end
$var wire 1 % SELRES [3] $end
$var wire 1 & SELRES [2] $end
$var wire 1 ' SELRES [1] $end
$var wire 1 ( SELRES [0] $end
$var wire 1 ) V $end
$var wire 1 * sampler $end
$scope module i1 $end
$var wire 1 + gnd $end
$var wire 1 , vcc $end
$var wire 1 - unknown $end
$var tri1 1 . devclrn $end
$var tri1 1 / devpor $end
$var tri1 1 0 devoe $end
$var wire 1 1 ALUSEL[3]~input_o $end
$var wire 1 2 CLK~input_o $end
$var wire 1 3 V~output_o $end
$var wire 1 4 SELRES[3]~output_o $end
$var wire 1 5 SELRES[2]~output_o $end
$var wire 1 6 SELRES[1]~output_o $end
$var wire 1 7 SELRES[0]~output_o $end
$var wire 1 8 RX1[3]~input_o $end
$var wire 1 9 RX0[3]~input_o $end
$var wire 1 : RX1[2]~input_o $end
$var wire 1 ; RX0[2]~input_o $end
$var wire 1 < RX0[1]~input_o $end
$var wire 1 = RX1[1]~input_o $end
$var wire 1 > RX1[0]~input_o $end
$var wire 1 ? RX0[0]~input_o $end
$var wire 1 @ inst7|LPM_ADD_SUB_component|auto_generated|result_int[1]~1_cout $end
$var wire 1 A inst7|LPM_ADD_SUB_component|auto_generated|result_int[2]~3 $end
$var wire 1 B inst7|LPM_ADD_SUB_component|auto_generated|result_int[3]~5 $end
$var wire 1 C inst7|LPM_ADD_SUB_component|auto_generated|result_int[4]~7 $end
$var wire 1 D inst7|LPM_ADD_SUB_component|auto_generated|result_int[5]~8_combout $end
$var wire 1 E OR3~combout $end
$var wire 1 F ALUSEL[2]~input_o $end
$var wire 1 G inst|LPM_MUX_component|auto_generated|result_node[3]~2_combout $end
$var wire 1 H ALUSEL[0]~input_o $end
$var wire 1 I ALUSEL[1]~input_o $end
$var wire 1 J inst|LPM_MUX_component|auto_generated|result_node[3]~1_combout $end
$var wire 1 K inst|LPM_MUX_component|auto_generated|result_node[3]~3_combout $end
$var wire 1 L inst7|LPM_ADD_SUB_component|auto_generated|result_int[4]~6_combout $end
$var wire 1 M inst|LPM_MUX_component|auto_generated|result_node[2]~0_combout $end
$var wire 1 N inst|LPM_MUX_component|auto_generated|result_node[3]~4_combout $end
$var wire 1 O inst|LPM_MUX_component|auto_generated|result_node[2]~6_combout $end
$var wire 1 P inst|LPM_MUX_component|auto_generated|result_node[2]~5_combout $end
$var wire 1 Q inst|LPM_MUX_component|auto_generated|result_node[2]~7_combout $end
$var wire 1 R inst7|LPM_ADD_SUB_component|auto_generated|result_int[3]~4_combout $end
$var wire 1 S inst|LPM_MUX_component|auto_generated|result_node[2]~8_combout $end
$var wire 1 T inst|LPM_MUX_component|auto_generated|result_node[2]~9_combout $end
$var wire 1 U inst7|LPM_ADD_SUB_component|auto_generated|result_int[2]~2_combout $end
$var wire 1 V inst|LPM_MUX_component|auto_generated|result_node[1]~11_combout $end
$var wire 1 W inst|LPM_MUX_component|auto_generated|result_node[1]~10_combout $end
$var wire 1 X inst|LPM_MUX_component|auto_generated|result_node[1]~12_combout $end
$var wire 1 Y inst|LPM_MUX_component|auto_generated|result_node[1]~13_combout $end
$var wire 1 Z inst|LPM_MUX_component|auto_generated|result_node[1]~14_combout $end
$var wire 1 [ inst|LPM_MUX_component|auto_generated|result_node[0]~15_combout $end
$var wire 1 \ inst|LPM_MUX_component|auto_generated|result_node[0]~16_combout $end
$var wire 1 ] inst|LPM_MUX_component|auto_generated|result_node[0]~17_combout $end
$upscope $end
$upscope $end
$enddefinitions $end
#0
$dumpvars
b100 !
0"
b100 #
b1110 $
0(
1'
0&
0%
1)
x*
0+
1,
x-
1.
1/
10
01
02
13
04
05
16
07
18
09
1:
1;
0<
1=
0>
0?
0@
1A
1B
0C
1D
1E
1F
1G
0H
0I
1J
0K
0L
0M
0N
0O
0P
0Q
0R
0S
0T
1U
1V
0W
1X
0Y
1Z
0[
0\
0]
$end
#20000
1"
12
0*
#40000
0"
02
1*
#60000
1"
12
0*
#80000
0"
02
1*
#100000
1"
12
0*
#120000
0"
02
1*
#140000
1"
12
0*
#160000
0"
02
1*
#180000
1"
12
0*
#200000
0"
02
1*
#220000
1"
12
0*
#240000
0"
02
1*
#260000
1"
12
0*
#280000
0"
02
1*
#300000
1"
12
0*
#320000
0"
02
1*
#340000
1"
12
0*
#360000
0"
02
1*
#380000
1"
12
0*
#400000
0"
02
1*
#420000
1"
12
0*
#440000
0"
02
1*
#460000
1"
12
0*
#480000
0"
02
1*
#500000
1"
12
0*
#520000
0"
02
1*
#540000
1"
12
0*
#560000
0"
02
1*
#580000
1"
12
0*
#600000
0"
02
1*
#620000
1"
12
0*
#640000
0"
02
1*
#660000
1"
12
0*
#680000
0"
02
1*
#700000
1"
12
0*
#720000
0"
02
1*
#740000
1"
12
0*
#760000
0"
02
1*
#780000
1"
12
0*
#800000
0"
02
1*
#820000
1"
12
0*
#840000
0"
02
1*
#860000
1"
12
0*
#880000
0"
02
1*
#900000
1"
12
0*
#920000
0"
02
1*
#940000
1"
12
0*
#960000
0"
02
1*
#980000
1"
12
0*
